{
  "project_info": {
    "project_number": "577473371365",
    "firebase_url": "https://react-native-lanjutan-auth.firebaseio.com",
    "project_id": "react-native-lanjutan-auth",
    "storage_bucket": "react-native-lanjutan-auth.appspot.com"
  },
  "client": [
    {
      "client_info": {
        "mobilesdk_app_id": "1:577473371365:android:6f66ff45ac2458271a880c",
        "android_client_info": {
          "package_name": "com.singgit.sanber"
        }
      },
      "oauth_client": [
        {
          "client_id": "577473371365-ue1cab9mkv8bntbablpa4arvd8fdsa8s.apps.googleusercontent.com",
          "client_type": 3
        }
      ],
      "api_key": [
        {
          "current_key": "AIzaSyDFY0-04KOZ_dcaZXVosWExRy4ticyctGs"
        }
      ],
      "services": {
        "appinvite_service": {
          "other_platform_oauth_client": [
            {
              "client_id": "577473371365-ue1cab9mkv8bntbablpa4arvd8fdsa8s.apps.googleusercontent.com",
              "client_type": 3
            }
          ]
        }
      }
    }
  ],
  "configuration_version": "1"
}